/* XPM */
static char *closeI_xpm[] = {
"14 28 2 1",
" 	c #A0A0A0",
".	c #000000",
"              ",
"              ",
"  ...    ...  ",
"   ...  ...   ",
"    ......    ",
"     ....     ",
"     ....     ",
"    ......    ",
"   ...  ...   ",
"  ...    ...  ",
"              ",
"              ",
"              ",
"              ",
"              ",
"              ",
"              ",
"              ",
"  ...    ...  ",
"   ...  ...   ",
"    ......    ",
"     ....     ",
"     ....     ",
"    ......    ",
"   ...  ...   ",
"  ...    ...  ",
"              ",
"              "};
